<define-tag pagetitle>DLA-2948-1 debian-archive-keyring</define-tag>
<define-tag report_date>2022-03-13</define-tag>
<define-tag packages>debian-archive-keyring</define-tag>
<define-tag isvulnerable>yes</define-tag>
<define-tag fixed>yes</define-tag>
<define-tag fixed-section>no</define-tag>

#use wml::debian::security

