<define-tag pagetitle>DLA-3225-1 awstats</define-tag>
<define-tag report_date>2022-12-05</define-tag>
<define-tag secrefs>CVE-2022-46391 Bug#1025410</define-tag>
<define-tag packages>awstats</define-tag>
<define-tag isvulnerable>yes</define-tag>
<define-tag fixed>yes</define-tag>
<define-tag fixed-section>no</define-tag>

#use wml::debian::security

