<define-tag pagetitle>DLA-3176-1 clickhouse</define-tag>
<define-tag report_date>2022-11-07</define-tag>
<define-tag secrefs>CVE-2021-42387 CVE-2021-42388 CVE-2021-43304 CVE-2021-43305 Bug#1008216</define-tag>
<define-tag packages>clickhouse</define-tag>
<define-tag isvulnerable>yes</define-tag>
<define-tag fixed>yes</define-tag>
<define-tag fixed-section>no</define-tag>

#use wml::debian::security

