<define-tag pagetitle>DSA-4990-1 ffmpeg</define-tag>
<define-tag report_date>2021-10-19</define-tag>
<define-tag secrefs>CVE-2020-20445 CVE-2020-20446 CVE-2020-20453 CVE-2020-21041 CVE-2020-22015 CVE-2020-22016 CVE-2020-22017 CVE-2020-22019 CVE-2020-22020 CVE-2020-22021 CVE-2020-22022 CVE-2020-22023 CVE-2020-22025 CVE-2020-22026 CVE-2020-22027 CVE-2020-22028 CVE-2020-22029 CVE-2020-22030 CVE-2020-22031 CVE-2020-22032 CVE-2020-22033 CVE-2020-22034 CVE-2020-22035 CVE-2020-22036 CVE-2020-22037 CVE-2020-22049 CVE-2020-22054 CVE-2020-35965 CVE-2021-38114 CVE-2021-38171 CVE-2021-38291</define-tag>
<define-tag packages>ffmpeg</define-tag>
<define-tag isvulnerable>yes</define-tag>
<define-tag fixed>yes</define-tag>
<define-tag fixed-section>no</define-tag>

#use wml::debian::security



</dl>
