<define-tag pagetitle>DSA-4968-1 haproxy</define-tag>
<define-tag report_date>2021-9-07</define-tag>
<define-tag secrefs>CVE-2021-40346</define-tag>
<define-tag packages>haproxy</define-tag>
<define-tag isvulnerable>yes</define-tag>
<define-tag fixed>yes</define-tag>
<define-tag fixed-section>no</define-tag>

#use wml::debian::security



</dl>
