<define-tag pagetitle>DSA-4604-1 cacti</define-tag>
<define-tag report_date>2020-1-19</define-tag>
<define-tag secrefs>CVE-2019-16723 CVE-2019-17357 CVE-2019-17358 Bug#947374 Bug#947375 Bug#941036</define-tag>
<define-tag packages>cacti</define-tag>
<define-tag isvulnerable>yes</define-tag>
<define-tag fixed>yes</define-tag>
<define-tag fixed-section>no</define-tag>

#use wml::debian::security



</dl>
