<define-tag pagetitle>DSA-4728-1 qemu</define-tag>
<define-tag report_date>2020-7-19</define-tag>
<define-tag secrefs>CVE-2020-10756 CVE-2020-13361 CVE-2020-13362 CVE-2020-13754 CVE-2020-13659 Bug#964247 Bug#961887 Bug#961887 Bug#961888</define-tag>
<define-tag packages>qemu</define-tag>
<define-tag isvulnerable>yes</define-tag>
<define-tag fixed>yes</define-tag>
<define-tag fixed-section>no</define-tag>

#use wml::debian::security



</dl>
