<define-tag pagetitle>DLA-2704-1 libxstream-java</define-tag>
<define-tag report_date>2021-07-05</define-tag>
<define-tag secrefs>CVE-2021-29505 Bug#989491</define-tag>
<define-tag packages>libxstream-java</define-tag>
<define-tag isvulnerable>yes</define-tag>
<define-tag fixed>yes</define-tag>
<define-tag fixed-section>no</define-tag>

#use wml::debian::security

