<define-tag pagetitle>DLA-2698-1 node-bl</define-tag>
<define-tag report_date>2021-6-30</define-tag>
<define-tag secrefs>CVE-2020-8244</define-tag>
<define-tag packages>node-bl</define-tag>
<define-tag isvulnerable>yes</define-tag>
<define-tag fixed>yes</define-tag>
<define-tag fixed-section>no</define-tag>

#use wml::debian::security

