<define-tag pagetitle>DLA-2689-1 linux</define-tag>
<define-tag report_date>2021-06-22</define-tag>
<define-tag secrefs>CVE-2020-24586 CVE-2020-24587 CVE-2020-24588 CVE-2020-25670 CVE-2020-25671 CVE-2020-25672 CVE-2020-26139 CVE-2020-26147 CVE-2020-26558 CVE-2020-29374 CVE-2020-36322 CVE-2021-0129 CVE-2021-3428 CVE-2021-3483 CVE-2021-3564 CVE-2021-3573 CVE-2021-3587 CVE-2021-20292 CVE-2021-23133 CVE-2021-23134 CVE-2021-28660 CVE-2021-28688 CVE-2021-28950 CVE-2021-28964 CVE-2021-28971 CVE-2021-29154 CVE-2021-29265 CVE-2021-29647 CVE-2021-29650 CVE-2021-30002 CVE-2021-31916 CVE-2021-32399 CVE-2021-33034</define-tag>
<define-tag packages>linux</define-tag>
<define-tag isvulnerable>yes</define-tag>
<define-tag fixed>yes</define-tag>
<define-tag fixed-section>no</define-tag>

#use wml::debian::security

