<define-tag pagetitle>DLA-2563-1 openssl</define-tag>
<define-tag report_date>2021-02-18</define-tag>
<define-tag secrefs>CVE-2021-23840 CVE-2021-23841</define-tag>
<define-tag packages>openssl</define-tag>
<define-tag isvulnerable>yes</define-tag>
<define-tag fixed>yes</define-tag>
<define-tag fixed-section>no</define-tag>

#use wml::debian::security
