<define-tag pagetitle>DSA-5455-1 iperf3</define-tag>
<define-tag report_date>2023-7-17</define-tag>
<define-tag secrefs>Bug#1040830</define-tag>
<define-tag packages>iperf3</define-tag>
<define-tag isvulnerable>yes</define-tag>
<define-tag fixed>yes</define-tag>
<define-tag fixed-section>no</define-tag>

#use wml::debian::security



</dl>
