<define-tag pagetitle>DSA-5525-1 samba</define-tag>
<define-tag report_date>2023-10-11</define-tag>
<define-tag secrefs>CVE-2023-3961 CVE-2023-4091 CVE-2023-4154 CVE-2023-42669 CVE-2023-42670</define-tag>
<define-tag packages>samba</define-tag>
<define-tag isvulnerable>yes</define-tag>
<define-tag fixed>yes</define-tag>
<define-tag fixed-section>no</define-tag>

#use wml::debian::security



</dl>
