<define-tag pagetitle>DSA-5511-1 mosquitto</define-tag>
<define-tag report_date>2023-10-01</define-tag>
<define-tag secrefs>CVE-2021-34434 CVE-2023-0809 CVE-2023-3592 CVE-2023-28366 CVE-2021-41039 Bug#993400 Bug#1001028</define-tag>
<define-tag packages>mosquitto</define-tag>
<define-tag isvulnerable>yes</define-tag>
<define-tag fixed>yes</define-tag>
<define-tag fixed-section>no</define-tag>

#use wml::debian::security



</dl>
