<define-tag pagetitle>DSA-5501-1 gnome-shell</define-tag>
<define-tag report_date>2023-9-18</define-tag>
<define-tag secrefs>CVE-2023-43090 Bug#1052067</define-tag>
<define-tag packages>gnome-shell</define-tag>
<define-tag isvulnerable>yes</define-tag>
<define-tag fixed>yes</define-tag>
<define-tag fixed-section>no</define-tag>

#use wml::debian::security



</dl>
