<define-tag pagetitle>DSA-5345-1 chromium</define-tag>
<define-tag report_date>2023-2-08</define-tag>
<define-tag secrefs>CVE-2023-0696 CVE-2023-0697 CVE-2023-0698 CVE-2023-0699 CVE-2023-0700 CVE-2023-0701 CVE-2023-0702 CVE-2023-0703 CVE-2023-0704 CVE-2023-0705 Bug#1030160</define-tag>
<define-tag packages>chromium</define-tag>
<define-tag isvulnerable>yes</define-tag>
<define-tag fixed>yes</define-tag>
<define-tag fixed-section>no</define-tag>

#use wml::debian::security



</dl>
