<define-tag pagetitle>DSA-5471-1 libhtmlcleaner-java</define-tag>
<define-tag report_date>2023-8-07</define-tag>
<define-tag secrefs>CVE-2023-34624</define-tag>
<define-tag packages>libhtmlcleaner-java</define-tag>
<define-tag isvulnerable>yes</define-tag>
<define-tag fixed>yes</define-tag>
<define-tag fixed-section>no</define-tag>

#use wml::debian::security



</dl>
