<define-tag pagetitle>DLA-993-1 linux</define-tag>
<define-tag report_date>2017-6-20</define-tag>
<define-tag secrefs>CVE-2017-0605 CVE-2017-7487 CVE-2017-7645 CVE-2017-7895 CVE-2017-8890 CVE-2017-8924 CVE-2017-8925 CVE-2017-9074 CVE-2017-9075 CVE-2017-9076 CVE-2017-9077 CVE-2017-9242 CVE-2017-1000364</define-tag>
<define-tag packages>linux</define-tag>
<define-tag isvulnerable>yes</define-tag>
<define-tag fixed>yes</define-tag>
<define-tag fixed-section>no</define-tag>

#use wml::debian::security

