<define-tag pagetitle>DLA-1159-1 graphicsmagick</define-tag>
<define-tag report_date>2017-11-3</define-tag>
<define-tag secrefs>CVE-2017-16352 CVE-2017-16353</define-tag>
<define-tag packages>graphicsmagick</define-tag>
<define-tag isvulnerable>yes</define-tag>
<define-tag fixed>yes</define-tag>
<define-tag fixed-section>no</define-tag>

#use wml::debian::security

