<define-tag pagetitle>DLA-1152-1 quagga</define-tag>
<define-tag report_date>2017-10-31</define-tag>
<define-tag secrefs>CVE-2017-16227 Bug#879474</define-tag>
<define-tag packages>quagga</define-tag>
<define-tag isvulnerable>yes</define-tag>
<define-tag fixed>yes</define-tag>
<define-tag fixed-section>no</define-tag>

#use wml::debian::security

