<define-tag pagetitle>DLA-952-1 kde4libs</define-tag>
<define-tag report_date>2017-5-25</define-tag>
<define-tag secrefs>CVE-2013-2074 CVE-2017-6410 CVE-2017-8422 Bug#856890</define-tag>
<define-tag packages>kde4libs</define-tag>
<define-tag isvulnerable>yes</define-tag>
<define-tag fixed>yes</define-tag>
<define-tag fixed-section>no</define-tag>

#use wml::debian::security

