<define-tag pagetitle>DLA-1032-1 unattended-upgrades</define-tag>
<define-tag report_date>2017-7-19</define-tag>
<define-tag secrefs>Bug#867169</define-tag>
<define-tag packages>unattended-upgrades</define-tag>
<define-tag isvulnerable>yes</define-tag>
<define-tag fixed>yes</define-tag>
<define-tag fixed-section>no</define-tag>

#use wml::debian::security

