<define-tag pagetitle>DLA-3589-1 python-git</define-tag>
<define-tag report_date>2023-09-29</define-tag>
<define-tag secrefs>CVE-2023-41040</define-tag>
<define-tag packages>python-git</define-tag>
<define-tag isvulnerable>yes</define-tag>
<define-tag fixed>yes</define-tag>
<define-tag fixed-section>no</define-tag>

#use wml::debian::security

