<define-tag pagetitle>DLA-3362-1 qemu</define-tag>
<define-tag report_date>2023-03-14</define-tag>
<define-tag secrefs>CVE-2020-14394 CVE-2020-29130 CVE-2021-3592 CVE-2021-3593 CVE-2021-3594 CVE-2021-3595 CVE-2022-0216 CVE-2022-1050 Bug#970937 Bug#979677 Bug#986795 Bug#989993 Bug#989994 Bug#989995 Bug#989996 Bug#1014589 Bug#1014590</define-tag>
<define-tag packages>qemu</define-tag>
<define-tag isvulnerable>yes</define-tag>
<define-tag fixed>yes</define-tag>
<define-tag fixed-section>no</define-tag>

#use wml::debian::security

