<define-tag pagetitle>DLA-3540-1 mediawiki</define-tag>
<define-tag report_date>2023-8-23</define-tag>
<define-tag secrefs>CVE-2023-29141</define-tag>
<define-tag packages>mediawiki</define-tag>
<define-tag isvulnerable>yes</define-tag>
<define-tag fixed>yes</define-tag>
<define-tag fixed-section>no</define-tag>

#use wml::debian::security

