<define-tag pagetitle>DLA-3600-1 postgresql-11</define-tag>
<define-tag report_date>2023-10-04</define-tag>
<define-tag secrefs>CVE-2023-39417</define-tag>
<define-tag packages>postgresql-11</define-tag>
<define-tag isvulnerable>yes</define-tag>
<define-tag fixed>yes</define-tag>
<define-tag fixed-section>no</define-tag>

#use wml::debian::security

