<define-tag pagetitle>DLA-3353-1 xfig</define-tag>
<define-tag report_date>2023-03-05</define-tag>
<define-tag secrefs>CVE-2021-40241 Bug#992395</define-tag>
<define-tag packages>xfig</define-tag>
<define-tag isvulnerable>yes</define-tag>
<define-tag fixed>yes</define-tag>
<define-tag fixed-section>no</define-tag>

#use wml::debian::security

