<define-tag pagetitle>DLA-3565-1 ruby-loofah</define-tag>
<define-tag report_date>2023-09-13</define-tag>
<define-tag secrefs>CVE-2022-23514 CVE-2022-23515 CVE-2022-23516 Bug#1026083</define-tag>
<define-tag packages>ruby-loofah</define-tag>
<define-tag isvulnerable>yes</define-tag>
<define-tag fixed>yes</define-tag>
<define-tag fixed-section>no</define-tag>

#use wml::debian::security

