<define-tag pagetitle>DLA-3330-1 amanda</define-tag>
<define-tag report_date>2023-02-21</define-tag>
<define-tag secrefs>CVE-2022-37704</define-tag>
<define-tag packages>amanda</define-tag>
<define-tag isvulnerable>yes</define-tag>
<define-tag fixed>yes</define-tag>
<define-tag fixed-section>no</define-tag>

#use wml::debian::security
