<define-tag pagetitle>DLA-3610-1 python-urllib3</define-tag>
<define-tag report_date>2023-10-08</define-tag>
<define-tag secrefs>CVE-2019-11236 CVE-2019-11324 CVE-2020-26137 CVE-2023-43804 Bug#927172 Bug#927412 Bug#1053626</define-tag>
<define-tag packages>python-urllib3</define-tag>
<define-tag isvulnerable>yes</define-tag>
<define-tag fixed>yes</define-tag>
<define-tag fixed-section>no</define-tag>

#use wml::debian::security

