<define-tag pagetitle>DLA-3485-1 php-cas</define-tag>
<define-tag report_date>2023-07-08</define-tag>
<define-tag secrefs>CVE-2022-39369 Bug#1023571</define-tag>
<define-tag packages>php-cas</define-tag>
<define-tag isvulnerable>yes</define-tag>
<define-tag fixed>yes</define-tag>
<define-tag fixed-section>no</define-tag>

#use wml::debian::security

