<define-tag pagetitle>DLA-3462-1 wordpress</define-tag>
<define-tag report_date>2023-6-21</define-tag>
<define-tag secrefs>CVE-2023-2745 Bug#1036296</define-tag>
<define-tag packages>wordpress</define-tag>
<define-tag isvulnerable>yes</define-tag>
<define-tag fixed>yes</define-tag>
<define-tag fixed-section>no</define-tag>

#use wml::debian::security

