<define-tag pagetitle>DLA-3376-1 svgpp</define-tag>
<define-tag report_date>2023-04-02</define-tag>
<define-tag secrefs>CVE-2019-6245 CVE-2019-6247 CVE-2021-44960</define-tag>
<define-tag packages>svgpp</define-tag>
<define-tag isvulnerable>yes</define-tag>
<define-tag fixed>yes</define-tag>
<define-tag fixed-section>no</define-tag>

#use wml::debian::security

