<define-tag pagetitle>DLA-3408-1 jruby</define-tag>
<define-tag report_date>2023-04-30</define-tag>
<define-tag secrefs>CVE-2017-17742 CVE-2019-16201 CVE-2019-16254 CVE-2019-16255 CVE-2020-25613 CVE-2021-31810 CVE-2021-32066 CVE-2023-28755 CVE-2023-28756 Bug#972230i Bug#1014818</define-tag>
<define-tag packages>jruby</define-tag>
<define-tag isvulnerable>yes</define-tag>
<define-tag fixed>yes</define-tag>
<define-tag fixed-section>no</define-tag>

#use wml::debian::security

