<define-tag pagetitle>DLA-3400-1 thunderbird</define-tag>
<define-tag report_date>2023-04-24</define-tag>
<define-tag secrefs>CVE-2023-0547 CVE-2023-1945 CVE-2023-28427 CVE-2023-29479 CVE-2023-29533 CVE-2023-29535 CVE-2023-29536 CVE-2023-29539 CVE-2023-29541 CVE-2023-29548 CVE-2023-29550</define-tag>
<define-tag packages>thunderbird</define-tag>
<define-tag isvulnerable>yes</define-tag>
<define-tag fixed>yes</define-tag>
<define-tag fixed-section>no</define-tag>

#use wml::debian::security

