<define-tag pagetitle>DLA-1521-1 otrs2</define-tag>
<define-tag report_date>2018-9-26</define-tag>
<define-tag secrefs>CVE-2018-16586 CVE-2018-16587</define-tag>
<define-tag packages>otrs2</define-tag>
<define-tag isvulnerable>yes</define-tag>
<define-tag fixed>yes</define-tag>
<define-tag fixed-section>no</define-tag>

#use wml::debian::security

