<define-tag pagetitle>DSA-5251-1 isc-dhcp</define-tag>
<define-tag report_date>2022-10-06</define-tag>
<define-tag secrefs>CVE-2022-2928 CVE-2022-2929 Bug#1021320</define-tag>
<define-tag packages>isc-dhcp</define-tag>
<define-tag isvulnerable>yes</define-tag>
<define-tag fixed>yes</define-tag>
<define-tag fixed-section>no</define-tag>

#use wml::debian::security



</dl>
