<define-tag pagetitle>DSA-5073-1 expat</define-tag>
<define-tag report_date>2022-2-12</define-tag>
<define-tag secrefs>CVE-2021-45960 CVE-2021-46143 CVE-2022-22822 CVE-2022-22823 CVE-2022-22824 CVE-2022-22825 CVE-2022-22826 CVE-2022-22827 CVE-2022-23852 CVE-2022-23990 Bug#1002994 Bug#1003474</define-tag>
<define-tag packages>expat</define-tag>
<define-tag isvulnerable>yes</define-tag>
<define-tag fixed>yes</define-tag>
<define-tag fixed-section>no</define-tag>

#use wml::debian::security



</dl>
