<define-tag pagetitle>DSA-5297-1 vlc</define-tag>
<define-tag report_date>2022-12-06</define-tag>
<define-tag secrefs>CVE-2022-41325</define-tag>
<define-tag packages>vlc</define-tag>
<define-tag isvulnerable>yes</define-tag>
<define-tag fixed>yes</define-tag>
<define-tag fixed-section>no</define-tag>

#use wml::debian::security



</dl>
