<define-tag pagetitle>DSA-5290-1 commons-configuration2</define-tag>
<define-tag report_date>2022-11-28</define-tag>
<define-tag secrefs>CVE-2022-33980 Bug#1014960</define-tag>
<define-tag packages>commons-configuration2</define-tag>
<define-tag isvulnerable>yes</define-tag>
<define-tag fixed>yes</define-tag>
<define-tag fixed-section>no</define-tag>

#use wml::debian::security



</dl>
