<define-tag pagetitle>DLA-2042-1 python-django</define-tag>
<define-tag report_date>2019-12-18</define-tag>
<define-tag secrefs>CVE-2019-19844</define-tag>
<define-tag packages>python-django</define-tag>
<define-tag isvulnerable>yes</define-tag>
<define-tag fixed>yes</define-tag>
<define-tag fixed-section>no</define-tag>

#use wml::debian::security
