<define-tag pagetitle>DLA-1916-1 opensc</define-tag>
<define-tag report_date>2019-9-11</define-tag>
<define-tag secrefs>CVE-2018-16391 CVE-2018-16392 CVE-2018-16393 CVE-2018-16418 CVE-2018-16419 CVE-2018-16420 CVE-2018-16421 CVE-2018-16422 CVE-2018-16423 CVE-2018-16424 CVE-2018-16425 CVE-2018-16426 CVE-2018-16427 CVE-2019-15945 CVE-2019-15946 Bug#909444 Bug#939668 Bug#939669</define-tag>
<define-tag packages>opensc</define-tag>
<define-tag isvulnerable>yes</define-tag>
<define-tag fixed>yes</define-tag>
<define-tag fixed-section>no</define-tag>

#use wml::debian::security

