<define-tag pagetitle>DLA-2054-1 jhead</define-tag>
<define-tag report_date>2019-12-31</define-tag>
<define-tag secrefs>CVE-2018-16554 CVE-2018-17088 CVE-2019-1010301 CVE-2019-1010302</define-tag>
<define-tag packages>jhead</define-tag>
<define-tag isvulnerable>yes</define-tag>
<define-tag fixed>yes</define-tag>
<define-tag fixed-section>no</define-tag>

#use wml::debian::security

