<define-tag pagetitle>DLA-1777-2 jquery</define-tag>
<define-tag report_date>2019-05-20</define-tag>
<define-tag secrefs>Bug##928827</define-tag>
<define-tag packages>jquery</define-tag>
<define-tag isvulnerable>yes</define-tag>
<define-tag fixed>yes</define-tag>
<define-tag fixed-section>no</define-tag>

#use wml::debian::security

