<define-tag pagetitle>DLA-1763-1 putty</define-tag>
<define-tag report_date>2019-4-24</define-tag>
<define-tag secrefs>CVE-2019-9894 CVE-2019-9897 CVE-2019-9898</define-tag>
<define-tag packages>putty</define-tag>
<define-tag isvulnerable>yes</define-tag>
<define-tag fixed>yes</define-tag>
<define-tag fixed-section>no</define-tag>

#use wml::debian::security

