<define-tag pagetitle>DLA-578-1 openssh</define-tag>
<define-tag report_date>2016-7-30</define-tag>
<define-tag secrefs>CVE-2016-6210</define-tag>
<define-tag packages>openssh</define-tag>
<define-tag isvulnerable>yes</define-tag>
<define-tag fixed>yes</define-tag>
<define-tag fixed-section>no</define-tag>

#use wml::debian::security

