<define-tag pagetitle>DLA-411-2 eglibc</define-tag>
<define-tag report_date>2016-2-12</define-tag>
<define-tag secrefs>CVE-2014-9761 Bug#814078</define-tag>
<define-tag packages>eglibc</define-tag>
<define-tag isvulnerable>yes</define-tag>
<define-tag fixed>yes</define-tag>
<define-tag fixed-section>no</define-tag>

#use wml::debian::security

